[
    {
        "name": "MinGW64",
        "preferredGenerator": { "name": "MinGW Makefiles" },
        "environmentVariables": { "PATH": "${command:mingw64.path}" },
        "compilers": {
            "C": "${command:mingw64.cc.exe}",
            "CXX": "${command:mingw64.cxx.exe}",
            "Fortran": "${command:mingw64.fc.exe}"
        },
        "keep": true
    }
]
