<?xml version="1.0" encoding="UTF-8" standalone="no"?>
<svg
   xmlns:dc="http://purl.org/dc/elements/1.1/"
   xmlns:cc="http://creativecommons.org/ns#"
   xmlns:rdf="http://www.w3.org/1999/02/22-rdf-syntax-ns#"
   xmlns:svg="http://www.w3.org/2000/svg"
   xmlns="http://www.w3.org/2000/svg"
   viewBox="0 0 600.995 600.995"
   height="600.995"
   width="600.995"
   xml:space="preserve"
   id="svg16340"
   version="1.1"><metadata
     id="metadata4857"><rdf:RDF><cc:Work
         rdf:about=""><dc:format>image/svg+xml</dc:format><dc:type
           rdf:resource="http://purl.org/dc/dcmitype/StillImage" /><dc:title></dc:title></cc:Work></rdf:RDF></metadata><defs
     id="defs16344" /><path
     id="path16350"
     style="fill:#ffffff;fill-opacity:1;fill-rule:nonzero;stroke:none;stroke-width:1.33333325"
     d="m 600.49998,300.5 c 0,165.688 -134.31199,300 -299.99999,300 C 134.812,600.5 0.49999999,466.188 0.49999999,300.5 0.49999999,134.81201 134.812,0.50001035 300.49999,0.50001035 466.18799,0.50001035 600.49998,134.81201 600.49998,300.5 Z" /><path
     id="path16352"
     style="fill:#000000;fill-opacity:1;fill-rule:nonzero;stroke:none;stroke-width:1.33333325"
     d="M 300.49999,1.0358208e-5 C 134.54133,1.0358208e-5 0,134.54134 0,300.5 0,466.45333 134.54133,600.99466 300.49999,600.99466 466.45332,600.99466 600.99465,466.45333 600.99465,300.5 600.99465,134.54134 466.45332,1.0358208e-5 300.49999,1.0358208e-5 Z m 0,0.499999991792 c 165.688,0 299.99999,134.31199965 299.99999,299.99998965 0,165.688 -134.31199,300 -299.99999,300 C 134.812,600.5 0.49999999,466.188 0.49999999,300.5 0.49999999,134.81201 134.812,0.50001035 300.49999,0.50001035 Z" /><path
     id="path16354"
     style="fill:#c1121c;fill-opacity:1;fill-rule:nonzero;stroke:none;stroke-width:1.33333325"
     d="M 300.49999,10.50001 C 140.812,10.50001 10.5,140.81201 10.5,300.5 c 0,159.68267 130.312,290 289.99999,290 159.68267,0 290,-130.31733 290,-290 0,-159.68799 -130.31733,-289.99999 -290,-289.99999 z m 0,80.401331 c 116.23467,0 209.59866,93.358669 209.59866,209.598659 0,116.23467 -93.36399,209.59866 -209.59866,209.59866 C 184.26,510.09866 90.901331,416.73467 90.901331,300.5 90.901331,184.26001 184.26,90.901341 300.49999,90.901341 Z" /><path
     id="path16356"
     style="fill:#000000;fill-opacity:1;fill-rule:nonzero;stroke:none;stroke-width:1.33333325"
     d="m 29.791999,30.354676 v 0.03067 h -0.032 z" /><path
     id="path16358"
     style="fill:#000000;fill-opacity:1;fill-rule:nonzero;stroke:none;stroke-width:1.33333325"
     d="m 29.759999,30.354676 h 0.03067 v 0.03067 h -0.03067 z" /><path
     id="path16360"
     style="fill:#000000;fill-opacity:1;fill-rule:nonzero;stroke:none;stroke-width:1.33333325"
     d="m 29.759999,30.385343 v -0.03067 l 0.032,0.03067 z m 0.032,0 -0.032,-0.03067 v 0.03067 z" /><path
     id="path16362"
     style="fill:#000000;fill-opacity:1;fill-rule:nonzero;stroke:none;stroke-width:1.33333325"
     d="m 29.822666,30.385343 h -0.06267 0.032 v -0.03067 z" /><path
     id="path16364"
     style="fill:#000000;fill-opacity:1;fill-rule:nonzero;stroke:none;stroke-width:1.33333325"
     d="m 29.759999,30.385343 v -0.03067 0.03067 l 0.032,-0.03067 z" /><path
     id="path16366"
     style="fill:#000000;fill-opacity:1;fill-rule:nonzero;stroke:none;stroke-width:1.33333325"
     d="m 29.759999,30.354676 h 0.03067 v 0.03067 h -0.03067 z" /><path
     id="path16368"
     style="fill:#000000;fill-opacity:1;fill-rule:nonzero;stroke:none;stroke-width:1.33333325"
     d="m 29.822666,30.354676 v 0.06133 h -0.06267 z" /><path
     id="path16370"
     style="fill:#000000;fill-opacity:1;fill-rule:nonzero;stroke:none;stroke-width:1.33333325"
     d="m 29.759999,30.354676 h 0.06267 v 0.06267 h -0.06267 z" /><path
     id="path16372"
     style="fill:#000000;fill-opacity:1;fill-rule:nonzero;stroke:none;stroke-width:1.33333325"
     d="m 29.759999,30.41601 v -0.06133 l 0.06267,0.06133 z m 0.06267,0 -0.06267,-0.06133 v 0.06133 z" /><path
     id="path16374"
     style="fill:#000000;fill-opacity:1;fill-rule:nonzero;stroke:none;stroke-width:1.33333325"
     d="m 29.822666,30.41601 h -0.06267 0.032 v -0.06133 z" /><path
     id="path16376"
     style="fill:#000000;fill-opacity:1;fill-rule:nonzero;stroke:none;stroke-width:1.33333325"
     d="m 29.759999,30.41601 v -0.06133 0.06133 l 0.06267,-0.06133 z" /><path
     id="path16378"
     style="fill:#000000;fill-opacity:1;fill-rule:nonzero;stroke:none;stroke-width:1.33333325"
     d="m 29.759999,30.354676 h 0.06267 v 0.06267 h -0.06267 z" /><path
     id="path16380"
     style="fill:#000000;fill-opacity:1;fill-rule:nonzero;stroke:none;stroke-width:1.33333325"
     d="m 29.822666,30.354676 v 0.06133 h -0.06267 z" /><path
     id="path16382"
     style="fill:#000000;fill-opacity:1;fill-rule:nonzero;stroke:none;stroke-width:1.33333325"
     d="m 29.759999,30.354676 h 0.06267 v 0.06267 h -0.06267 z" /><path
     id="path16384"
     style="fill:#000000;fill-opacity:1;fill-rule:nonzero;stroke:none;stroke-width:1.33333325"
     d="m 29.759999,30.41601 v -0.06133 l 0.06267,0.06133 z m 0.06267,0 -0.06267,-0.06133 v 0.06133 z" /><path
     id="path16386"
     style="fill:#000000;fill-opacity:1;fill-rule:nonzero;stroke:none;stroke-width:1.33333325"
     d="m 29.822666,30.41601 h -0.06267 0.032 v -0.06133 z" /><path
     id="path16388"
     style="fill:#000000;fill-opacity:1;fill-rule:nonzero;stroke:none;stroke-width:1.33333325"
     d="m 29.759999,30.41601 v -0.06133 0.06133 l 0.06267,-0.06133 z" /><path
     id="path16390"
     style="fill:#000000;fill-opacity:1;fill-rule:nonzero;stroke:none;stroke-width:1.33333325"
     d="m 29.759999,30.354676 h 0.06267 v 0.06267 h -0.06267 z" /><path
     id="path16392"
     style="fill:#000000;fill-opacity:1;fill-rule:nonzero;stroke:none;stroke-width:1.33333325"
     d="m 29.822666,30.354676 v 0.06133 h -0.06267 z" /><path
     id="path16394"
     style="fill:#000000;fill-opacity:1;fill-rule:nonzero;stroke:none;stroke-width:1.33333325"
     d="m 29.759999,30.354676 h 0.06267 v 0.06267 h -0.06267 z" /><path
     id="path16396"
     style="fill:#000000;fill-opacity:1;fill-rule:nonzero;stroke:none;stroke-width:1.33333325"
     d="m 29.759999,30.41601 v -0.06133 l 0.06267,0.06133 z m 0.06267,0 -0.06267,-0.06133 v 0.06133 z" /><path
     id="path16398"
     style="fill:#000000;fill-opacity:1;fill-rule:nonzero;stroke:none;stroke-width:1.33333325"
     d="m 29.822666,30.41601 h -0.06267 0.032 v -0.06133 z" /><path
     id="path16400"
     style="fill:#000000;fill-opacity:1;fill-rule:nonzero;stroke:none;stroke-width:1.33333325"
     d="m 29.759999,30.41601 v -0.06133 0.06133 l 0.06267,-0.06133 z" /><path
     id="path16402"
     style="fill:#000000;fill-opacity:1;fill-rule:nonzero;stroke:none;stroke-width:1.33333325"
     d="m 29.759999,30.354676 h 0.06267 v 0.06267 h -0.06267 z" /><g
     id="text4861"
     style="font-style:normal;font-variant:normal;font-weight:normal;font-stretch:normal;font-size:348.18942261px;line-height:125%;font-family:'TGL 0-17';-inkscape-font-specification:'TGL 0-17';text-align:start;letter-spacing:0px;word-spacing:0px;writing-mode:lr-tb;text-anchor:start;fill:#000000;fill-opacity:1;stroke:none;stroke-width:1px;stroke-linecap:butt;stroke-linejoin:miter;stroke-opacity:1"
     aria-label="5"><path
       id="path5123"
       style="font-style:normal;font-variant:normal;font-weight:normal;font-stretch:normal;font-family:'DIN 1451 Std';-inkscape-font-specification:'DIN 1451 Std';fill:#000000;stroke-width:0.0772267px"
       d="m 234.344,175.49999 h 131.96379 v 35.51532 h -98.53761 v 56.0585 q 17.06128,-13.57939 39.69359,-13.57939 14.27577,0 25.76602,5.57103 11.49025,5.22284 18.45404,12.53482 5.22284,5.57103 8.70474,11.14206 3.83008,5.22284 5.91922,12.88301 2.43732,7.66017 3.48189,18.10585 1.39276,10.44568 1.39276,25.76602 0,12.53482 -1.04457,21.58774 -0.69638,8.70474 -2.78551,15.66853 -1.74095,6.61559 -4.52647,11.83844 -2.78551,5.22284 -6.96379,10.44568 -7.66016,9.7493 -21.23955,18.10585 -13.57939,8.35654 -32.38162,8.35654 -12.18663,0 -24.37326,-3.48189 -11.83844,-3.48189 -21.93593,-11.14206 -10.09749,-8.00836 -17.06128,-20.19499 -6.96379,-12.18663 -9.05293,-29.5961 h 35.51532 q 2.78552,13.2312 11.49026,21.23956 9.05292,7.66016 24.02507,7.66016 12.883,0 19.84679,-4.87465 7.31198,-5.22284 10.44569,-12.88301 3.48189,-8.00835 3.83008,-17.40947 0.69638,-9.40111 0.69638,-18.10585 0,-10.44568 -1.74095,-19.15042 -1.39276,-8.70473 -5.22284,-14.97214 -3.83008,-6.26741 -11.14206,-9.74931 -6.96379,-3.83008 -17.75766,-3.83008 -10.0975,0 -18.10585,4.87465 -7.66017,4.52647 -13.92758,15.66853 H 234.344 Z" /></g></svg>